module gitlab.com/david-kalmakoff/blockchain

go 1.21.3

toolchain go1.21.4

require (
	github.com/ardanlabs/conf/v3 v3.1.6
	github.com/dimfeld/httptreemux/v5 v5.5.0
	github.com/ethereum/go-ethereum v1.13.5
	github.com/go-playground/locales v0.14.1
	github.com/go-playground/universal-translator v0.18.1
	github.com/go-playground/validator/v10 v10.14.1
	github.com/google/go-cmp v0.6.0
	github.com/google/uuid v1.3.0
	github.com/spf13/cobra v1.7.0
	go.uber.org/zap v1.24.0
)

require (
	github.com/btcsuite/btcd/btcec/v2 v2.3.2 // indirect
	github.com/decred/dcrd/dcrec/secp256k1/v4 v4.2.0 // indirect
	github.com/gabriel-vasile/mimetype v1.4.2 // indirect
	github.com/holiman/uint256 v1.2.3 // indirect
	github.com/inconshreveable/mousetrap v1.1.0 // indirect
	github.com/leodido/go-urn v1.2.4 // indirect
	github.com/spf13/pflag v1.0.5 // indirect
	go.uber.org/atomic v1.11.0 // indirect
	go.uber.org/multierr v1.11.0 // indirect
	golang.org/x/crypto v0.14.0 // indirect
	golang.org/x/net v0.17.0 // indirect
	golang.org/x/sys v0.13.0 // indirect
	golang.org/x/text v0.13.0 // indirect
)
